Query cellxgene collections, datasets, and files — collections • cellxgenedp
…
authors() returns a tibble of authors associated with
each collection.

publisher_metadata() returns a tibble of publisher
metadata (journal, publicate date, doi) associated with each
collection.

    Examples

db <- db()

collections(db)
#> # A tibble: 227 × 18
#>    collection_id    collection_version_id collection_url consortia contact_email
#>    <chr>            <chr>                 <chr>          <list>    <chr>        
#>  1 4828d33d-fb26-4… 3892863c-7057-4a32-a… https://cellx… <chr [1]> anna.molofsk…
#>  2 48259aa8-f168-4… 67e75752-53dd-4aec-9… https://cellx… <lgl [1]> wtk22@cam.ac…
#>  3 6e067060-f7e4-4… 37be1b6a-2d00-4b28-a… https://cellx… <lgl [1]> William.Zach…
#>  4 1ca90a2d-2943-4… 1cb67a11-55b0-4416-9… https://cellx… <chr [2]> edl@allenins…
#>  5 31937775-0602-4… e79f335e-ff6b-4c01-8… https://cellx… <lgl [1]> weallen@fas.…
#>  6 34f12de7-c5e5-4… 375b0e1c-19d6-42b9-a… https://cellx… <chr [1]> ganier.clari…
#>  7 48d354f5-a5ca-4… 8216eda1-79ae-4faf-9… https://cellx… <chr [1]> Nathan.Salom…
#>  8 28e9d721-6816-4… c152fcf5-a85a-46c4-9… https://cellx… <lgl [1]> Tom_Mariani@…
#>  9 9c8808ce-1138-4… e3c1e670-8e51-499f-a… https://cellx… <lgl [1]> ebutcher@sta…
#> 10 37f1f46d-6dfa-4… 731ffc35-11c3-4236-8… https://cellx… <lgl [1]> ecker@salk.e…
#> # ℹ 217 more rows
#> # ℹ 13 more variables: contact_name <chr>, curator_name <chr>,
#> #   description <chr>, doi <chr>, links <list>, name <chr>,
#> #   publisher_metadata <list>, revising_in <lgl>, revision_of <lgl>,
#> #   visibility <chr>, created_at <date>, published_at <date>, revised_at <date>
…
## authors per collection
authors() |>
    dplyr::count(collection_id, sort = TRUE)
#> # A tibble: 218 × 2
#>    collection_id                            n
#>    <chr>                                <int>
#>  1 e5f58829-1a66-40b5-a624-9046778e74f5   221
#>  2 8f126edf-5405-4731-8374-b5ce11f53e82   205
#>  3 bcb61471-2a44-4d00-a0af-ff085512674c   171
#>  4 4f586cb6-972b-4ef7-a4ef-3c3800a3c004   147
#>  5 0b9d8a04-bb9d-44da-aa27-705bb65b54eb   135
#>  6 367d95c0-0eb0-4dae-8276-9407239421ee   106
#>  7 6f6d381a-7701-4781-935c-db10d30de293    98
#>  8 1ca90a2d-2943-483d-b678-b809bf464c30    94
#>  9 0a839c4b-10d0-4d64-9272-684c49a2c8ba    90
#> 10 ae1420fe-6630-46ed-8b3d-cc6056a66467    83
#> # ℹ 208 more rows
…
