Discovery and retrieval • cellxgenedp
…
db

## cellxgene_db
## number of collections(): 227
## number of datasets(): 1473
## number of files(): 2693

The portal organizes data hierarchically, with ‘collections’
(research studies, approximately), ‘datasets’, and ‘files’. Discover
data using the corresponding functions.

collections(db)

## # A tibble: 227 × 18
##    collection_id    collection_version_id collection_url consortia contact_email
##    <chr>            <chr>                 <chr>          <list>    <chr>        
##  1 4828d33d-fb26-4… 3892863c-7057-4a32-a… https://cellx… <chr [1]> anna.molofsk…
##  2 48259aa8-f168-4… 67e75752-53dd-4aec-9… https://cellx… <lgl [1]> wtk22@cam.ac…
##  3 6e067060-f7e4-4… 37be1b6a-2d00-4b28-a… https://cellx… <lgl [1]> William.Zach…
##  4 1ca90a2d-2943-4… 1cb67a11-55b0-4416-9… https://cellx… <chr [2]> edl@allenins…
##  5 31937775-0602-4… e79f335e-ff6b-4c01-8… https://cellx… <lgl [1]> weallen@fas.…
##  6 34f12de7-c5e5-4… 375b0e1c-19d6-42b9-a… https://cellx… <chr [1]> ganier.clari…
##  7 48d354f5-a5ca-4… 8216eda1-79ae-4faf-9… https://cellx… <chr [1]> Nathan.Salom…
##  8 28e9d721-6816-4… c152fcf5-a85a-46c4-9… https://cellx… <lgl [1]> Tom_Mariani@…
##  9 9c8808ce-1138-4… e3c1e670-8e51-499f-a… https://cellx… <lgl [1]> ebutcher@sta…
## 10 37f1f46d-6dfa-4… 731ffc35-11c3-4236-8… https://cellx… <lgl [1]> ecker@salk.e…
## # ℹ 217 more rows
## # ℹ 13 more variables: contact_name <chr>, curator_name <chr>,
## #   description <chr>, doi <chr>, links <list>, name <chr>,
## #   publisher_metadata <list>, revising_in <lgl>, revision_of <lgl>,
## #   visibility <chr>, created_at <date>, published_at <date>, revised_at <date>

datasets(db)

## # A tibble: 1,473 × 33
##    dataset_id   dataset_version_id collection_id donor_id assay  batch_condition
##    <chr>        <chr>              <chr>         <list>   <list> <list>         
##  1 5dec4249-84… dea35fd3-c576-4ca… 4828d33d-fb2… <chr>    <list> <lgl [1]>      
##  2 be35c935-ee… 15248da6-b817-403… 48259aa8-f16… <chr>    <list> <chr [1]>      
##  3 975e13b6-be… b2c407a9-4915-4d1… 48259aa8-f16… <chr>    <list> <chr [1]>      
##  4 55003f67-c4… c769bb55-b211-46a… 48259aa8-f16… <chr>    <list> <lgl [1]>      
##  5 24ec2dc5-35… 872b9ff1-86e9-4a7… 48259aa8-f16… <chr>    <list> <chr [1]>      
##  6 0ba636a1-47… 5a611776-aae0-41b… 48259aa8-f16… <chr>    <list> <chr [1]>      
##  7 2e877cd3-55… 5596ac91-b10e-4d8… 6e067060-f7e… <chr>    <list> <lgl [1]>      
##  8 fc0ceb80-d2… f94214e6-b6af-4ed… 1ca90a2d-294… <chr>    <list> <chr [1]>      
##  9 f67f2cfa-ba… 2cc3894f-09be-4af… 1ca90a2d-294… <chr>    <list> <chr [1]>      
## 10 eec3e37d-ed… cb6f7da3-3c1d-449… 1ca90a2d-294… <chr>    <list> <chr [1]>      
## # ℹ 1,463 more rows
## # ℹ 27 more variables: cell_count <int>, cell_type <list>, citation <chr>,
## #   default_embedding <chr>, development_stage <list>, disease <list>,
## #   embeddings <list>, explorer_url <chr>, feature_biotype <list>,
## #   feature_count <int>, feature_reference <list>, is_primary_data <list>,
## #   mean_genes_per_cell <dbl>, organism <list>, primary_cell_count <int>,
## #   raw_data_location <chr>, schema_version <chr>, …

files(db)

## # A tibble: 2,693 × 4
##    dataset_id                              filesize filetype url                
##    <chr>                                      <dbl> <chr>    <chr>              
##  1 5dec4249-8459-4df0-8998-37193135754c   239645451 H5AD     https://datasets.c…
##  2 5dec4249-8459-4df0-8998-37193135754c   241723366 RDS      https://datasets.c…
##  3 be35c935-ee4f-475c-9d3c-97630d59a735  3555862131 H5AD     https://datasets.c…
##  4 be35c935-ee4f-475c-9d3c-97630d59a735  3390479178 RDS      https://datasets.c…
##  5 975e13b6-bec1-4eed-b46a-9be1f1357373  4584229094 H5AD     https://datasets.c…
##  6 975e13b6-bec1-4eed-b46a-9be1f1357373  4527013199 RDS      https://datasets.c…
##  7 55003f67-c494-46f1-83fb-902745646379 19350133095 H5AD     https://datasets.c…
##  8 24ec2dc5-3573-4d66-a9e1-25b7dcf43e27   151629100 H5AD     https://datasets.c…
##  9 24ec2dc5-3573-4d66-a9e1-25b7dcf43e27   132974054 RDS      https://datasets.c…
## 10 0ba636a1-4754-4786-a8be-7ab3cf760fd6  8493125588 H5AD     https://datasets.c…
## # ℹ 2,683 more rows
…
We can take a similar strategy to identify all datasets belonging to
this collection

left_join(
    collection_with_most_datasets |> select(collection_id),
    datasets(db),
    by = "collection_id"
)

## # A tibble: 138 × 33
##    collection_id   dataset_id dataset_version_id donor_id assay  batch_condition
##    <chr>           <chr>      <chr>              <list>   <list> <list>         
##  1 283d65eb-dd53-… ff7d15fa-… 61ee7a9e-216b-411… <chr>    <list> <chr [1]>      
##  2 283d65eb-dd53-… fe1a73ab-… 6cc6a9b9-d53a-4b2… <chr>    <list> <chr [1]>      
##  3 283d65eb-dd53-… fbf173f9-… cf701447-cfdd-40f… <chr>    <list> <chr [1]>      
##  4 283d65eb-dd53-… fa554686-… 83b8522d-f362-4ac… <chr>    <list> <chr [1]>      
##  5 283d65eb-dd53-… f9034091-… 8faf8f5a-284a-4b2… <chr>    <list> <chr [1]>      
##  6 283d65eb-dd53-… f8dda921-… 821fa877-c2b1-488… <chr>    <list> <chr [1]>      
##  7 283d65eb-dd53-… f7d003d4-… f86dbeff-36bf-403… <chr>    <list> <chr [1]>      
##  8 283d65eb-dd53-… f6d9f2ad-… 7d5e92ed-87fa-4e8… <chr>    <list> <chr [1]>      
##  9 283d65eb-dd53-… f5a04dff-… 0eb52059-c5a4-4b6… <chr>    <list> <chr [1]>      
## 10 283d65eb-dd53-… f502c312-… 443f8b59-a15d-4d2… <chr>    <list> <chr [1]>      
## # ℹ 128 more rows
## # ℹ 27 more variables: cell_count <int>, cell_type <list>, citation <chr>,
## #   default_embedding <chr>, development_stage <list>, disease <list>,
## #   embeddings <list>, explorer_url <chr>, feature_biotype <list>,
## #   feature_count <int>, feature_reference <list>, is_primary_data <list>,
## #   mean_genes_per_cell <dbl>, organism <list>, primary_cell_count <int>,
## #   raw_data_location <chr>, schema_version <chr>, …

facets() provides information on ‘levels’ present in
specific columns

Notice that some columns are ‘lists’ rather than atomic vectors like
‘character’ or ‘integer’.

datasets(db) |>
    select(where(is.list))

## # A tibble: 1,473 × 16
##    donor_id    assay      batch_condition cell_type   development_stage disease
##    <list>      <list>     <list>          <list>      <list>            <list> 
##  1 <chr [4]>   <list [1]> <lgl [1]>       <list [1]>  <list [1]>        <list> 
##  2 <chr [55]>  <list [1]> <chr [1]>       <list [8]>  <list [33]>       <list> 
##  3 <chr [55]>  <list [1]> <chr [1]>       <list [5]>  <list [33]>       <list> 
##  4 <chr [286]> <list [3]> <lgl [1]>       <list [26]> <list [43]>       <list> 
##  5 <chr [55]>  <list [1]> <chr [1]>       <list [15]> <list [33]>       <list> 
##  6 <chr [55]>  <list [1]> <chr [1]>       <list [11]> <list [33]>       <list> 
##  7 <chr [13]>  <list [1]> <lgl [1]>       <list [16]> <list [1]>        <list> 
##  8 <chr [79]>  <list [2]> <chr [1]>       <list [1]>  <list [21]>       <list> 
##  9 <chr [89]>  <list [2]> <chr [1]>       <list [1]>  <list [24]>       <list> 
## 10 <chr [89]>  <list [2]> <chr [1]>       <list [1]>  <list [24]>       <list> 
## # ℹ 1,463 more rows
## # ℹ 10 more variables: embeddings <list>, feature_biotype <list>,
## #   feature_reference <list>, is_primary_data <list>, organism <list>,
## #   self_reported_ethnicity <list>, sex <list>, spatial <list>,
## #   suspension_type <list>, tissue <list>

This indicates that at least some of the datasets had more than one
type of assay, cell_type, etc. The
facets() function provides a convenient way of discovering
possible levels of each column, e.g., assay,
organism, self_reported_ethnicity, or
sex, and the number of datasets with each label.

facets(db, "assay")

## # A tibble: 40 × 4
##    facet label                          ontology_term_id     n
##    <chr> <chr>                          <chr>            <int>
##  1 assay 10x 3' v3                      EFO:0009922        673
##  2 assay 10x 3' v2                      EFO:0009899        299
##  3 assay Slide-seqV2                    EFO:0030062        223
##  4 assay Visium Spatial Gene Expression EFO:0010961        220
##  5 assay 10x 5' v1                      EFO:0011025        100
##  6 assay Smart-seq2                     EFO:0008931         69
##  7 assay 10x multiome                   EFO:0030059         67
##  8 assay sci-RNA-seq                    EFO:0010550         33
##  9 assay 10x 5' v2                      EFO:0009900         32
## 10 assay 10x 5' transcription profiling EFO:0030004         23
## # ℹ 30 more rows

facets(db, "self_reported_ethnicity")

## # A tibble: 34 × 4
##    facet                   label                          ontology_term_id     n
##    <chr>                   <chr>                          <chr>            <int>
##  1 self_reported_ethnicity European                       HANCESTRO:0005     583
##  2 self_reported_ethnicity unknown                        unknown            562
##  3 self_reported_ethnicity na                             na                 401
##  4 self_reported_ethnicity Asian                          HANCESTRO:0008     149
##  5 self_reported_ethnicity African American               HANCESTRO:0568      66
##  6 self_reported_ethnicity Hispanic or Latin American     HANCESTRO:0014      66
##  7 self_reported_ethnicity Native American,Hispanic or L… HANCESTRO:0013,…    50
##  8 self_reported_ethnicity African American or Afro-Cari… HANCESTRO:0016      32
##  9 self_reported_ethnicity Greater Middle Eastern  (Midd… HANCESTRO:0015      23
## 10 self_reported_ethnicity African                        HANCESTRO:0010      19
## # ℹ 24 more rows
…
Collections may have links to additional external data, in this case
a DOI and two links to RAW_DATA.

external_links <- links(db)
external_links

## # A tibble: 845 × 4
##    collection_id                        link_name             link_type link_url
##    <chr>                                <chr>                 <chr>     <chr>   
##  1 4828d33d-fb26-42e7-bf36-18293b0eec85 NA                    LAB_WEBS… https:/…
##  2 4828d33d-fb26-42e7-bf36-18293b0eec85 GSE173173             RAW_DATA  https:/…
##  3 4828d33d-fb26-42e7-bf36-18293b0eec85 NA                    DATA_SOU… https:/…
##  4 48259aa8-f168-4bf5-b797-af8e88da6637 trained CellTypist l… OTHER     https:/…
##  5 48259aa8-f168-4bf5-b797-af8e88da6637 NA                    OTHER     https:/…
##  6 48259aa8-f168-4bf5-b797-af8e88da6637 E-MTAB-13664          RAW_DATA  https:/…
##  7 6e067060-f7e4-466c-86f3-ec3dd33c0381 NA                    RAW_DATA  https:/…
##  8 6e067060-f7e4-466c-86f3-ec3dd33c0381 Images                OTHER     https:/…
##  9 6e067060-f7e4-466c-86f3-ec3dd33c0381 LungMAP ShinyCell     OTHER     http://…
## 10 6e067060-f7e4-466c-86f3-ec3dd33c0381 LungMAP Portal        OTHER     http://…
## # ℹ 835 more rows
…
