Case studies • cellxgenedp
…
A cellxgenedp
solution uses authors() to discover authors and their
collections, and joins this information to datasets().

author_datasets <- left_join(
    authors(),
    datasets(),
    by = "collection_id",
    relationship = "many-to-many"
)
author_datasets
#> # A tibble: 50,135 × 36
#>    collection_id  family given consortium dataset_id dataset_version_id donor_id
#>    <chr>          <chr>  <chr> <chr>      <chr>      <chr>              <list>  
#>  1 4828d33d-fb26… Escou… Caro… NA         5dec4249-… dea35fd3-c576-4ca… <chr>   
#>  2 4828d33d-fb26… Dorman Leah… NA         5dec4249-… dea35fd3-c576-4ca… <chr>   
#>  3 4828d33d-fb26… Nguyen Phi … NA         5dec4249-… dea35fd3-c576-4ca… <chr>   
#>  4 4828d33d-fb26… Lagar… Chri… NA         5dec4249-… dea35fd3-c576-4ca… <chr>   
#>  5 4828d33d-fb26… Nakajo Haru… NA         5dec4249-… dea35fd3-c576-4ca… <chr>   
#>  6 4828d33d-fb26… Ander… Sara… NA         5dec4249-… dea35fd3-c576-4ca… <chr>   
#>  7 4828d33d-fb26… Barron Jeri… NA         5dec4249-… dea35fd3-c576-4ca… <chr>   
#>  8 4828d33d-fb26… Wade   Sara… NA         5dec4249-… dea35fd3-c576-4ca… <chr>   
#>  9 4828d33d-fb26… Cuevas Beat… NA         5dec4249-… dea35fd3-c576-4ca… <chr>   
#> 10 4828d33d-fb26… Vainc… Ilia… NA         5dec4249-… dea35fd3-c576-4ca… <chr>   
#> # ℹ 50,125 more rows
#> # ℹ 29 more variables: assay <list>, batch_condition <list>, cell_count <int>,
#> #   cell_type <list>, citation <chr>, default_embedding <chr>,
#> #   development_stage <list>, disease <list>, embeddings <list>,
#> #   explorer_url <chr>, feature_biotype <list>, feature_count <int>,
#> #   feature_reference <list>, is_primary_data <list>,
#> #   mean_genes_per_cell <dbl>, organism <list>, primary_cell_count <int>, …

author_datasets provides a convenient point from which
to make basic queries, e.g., finding the authors contributing the most
datasets.

author_datasets |>
    count(family, given, sort = TRUE)
#> # A tibble: 4,594 × 3
#>    family      given        n
#>    <chr>       <chr>    <int>
#>  1 Teichmann   Sarah A.   264
#>  2 Casper      Tamara     256
#>  3 Dee         Nick       256
#>  4 Hirschstein Daniel     241
#>  5 Macosko     Evan Z.    230
#>  6 Travaglini  Kyle J.    230
#>  7 Chen        Fei        226
#>  8 Ding        Song-Lin   226
#>  9 Murray      Evan       226
#> 10 Lein        Ed S.      222
#> # ℹ 4,584 more rows
…
The datasets associated with authors are

right_join(
    author_datasets,
    prolific_authors,
    by = c("family", "given")
)
#> # A tibble: 644 × 37
#>    collection_id  family given consortium dataset_id dataset_version_id donor_id
#>    <chr>          <chr>  <chr> <chr>      <chr>      <chr>              <list>  
#>  1 34f12de7-c5e5… Teich… Sara… NA         f0973891-… 78aa364a-0f20-411… <chr>   
#>  2 34f12de7-c5e5… Teich… Sara… NA         ef9a2058-… 9ec16c9d-b4b3-445… <chr>   
#>  3 34f12de7-c5e5… Teich… Sara… NA         e7c5ba7e-… 2d3fc1d5-933e-47d… <chr>   
#>  4 34f12de7-c5e5… Teich… Sara… NA         dee75ca4-… 795232bf-08ca-48e… <chr>   
#>  5 34f12de7-c5e5… Teich… Sara… NA         dce10ba0-… 2f2a2929-0c53-4f3… <chr>   
#>  6 34f12de7-c5e5… Teich… Sara… NA         da22c90e-… f9dc9230-cd78-4cc… <chr>   
#>  7 34f12de7-c5e5… Teich… Sara… NA         d7d70622-… 18cc77ec-f88e-424… <chr>   
#>  8 34f12de7-c5e5… Teich… Sara… NA         d465e08b-… 3dc18f67-12e1-4a6… <chr>   
#>  9 34f12de7-c5e5… Teich… Sara… NA         c68e6ac8-… 97872cba-2dea-4d4… <chr>   
#> 10 34f12de7-c5e5… Teich… Sara… NA         b336b422-… 5def0614-e8e3-4bb… <chr>   
#> # ℹ 634 more rows
#> # ℹ 30 more variables: assay <list>, batch_condition <list>, cell_count <int>,
#> #   cell_type <list>, citation <chr>, default_embedding <chr>,
#> #   development_stage <list>, disease <list>, embeddings <list>,
#> #   explorer_url <chr>, feature_biotype <list>, feature_count <int>,
#> #   feature_reference <list>, is_primary_data <list>,
#> #   mean_genes_per_cell <dbl>, organism <list>, primary_cell_count <int>, …

Alternatively, one might be interested in specific authors. This is
most easily accomplished with a simple filter on
author_datasets, e.g.,

author_datasets |>
    filter(
        family %in% c("Teichmann", "Regev", "Haniffa")
    )
#> # A tibble: 405 × 36
#>    collection_id  family given consortium dataset_id dataset_version_id donor_id
#>    <chr>          <chr>  <chr> <chr>      <chr>      <chr>              <list>  
#>  1 34f12de7-c5e5… Teich… Sara… NA         f0973891-… 78aa364a-0f20-411… <chr>   
#>  2 34f12de7-c5e5… Teich… Sara… NA         ef9a2058-… 9ec16c9d-b4b3-445… <chr>   
#>  3 34f12de7-c5e5… Teich… Sara… NA         e7c5ba7e-… 2d3fc1d5-933e-47d… <chr>   
#>  4 34f12de7-c5e5… Teich… Sara… NA         dee75ca4-… 795232bf-08ca-48e… <chr>   
#>  5 34f12de7-c5e5… Teich… Sara… NA         dce10ba0-… 2f2a2929-0c53-4f3… <chr>   
#>  6 34f12de7-c5e5… Teich… Sara… NA         da22c90e-… f9dc9230-cd78-4cc… <chr>   
#>  7 34f12de7-c5e5… Teich… Sara… NA         d7d70622-… 18cc77ec-f88e-424… <chr>   
#>  8 34f12de7-c5e5… Teich… Sara… NA         d465e08b-… 3dc18f67-12e1-4a6… <chr>   
#>  9 34f12de7-c5e5… Teich… Sara… NA         c68e6ac8-… 97872cba-2dea-4d4… <chr>   
#> 10 34f12de7-c5e5… Teich… Sara… NA         b336b422-… 5def0614-e8e3-4bb… <chr>   
#> # ℹ 395 more rows
#> # ℹ 29 more variables: assay <list>, batch_condition <list>, cell_count <int>,
#> #   cell_type <list>, citation <chr>, default_embedding <chr>,
#> #   development_stage <list>, disease <list>, embeddings <list>,
#> #   explorer_url <chr>, feature_biotype <list>, feature_count <int>,
#> #   feature_reference <list>, is_primary_data <list>,
#> #   mean_genes_per_cell <dbl>, organism <list>, primary_cell_count <int>, …
or more carefully by constructing at data.frame of
family and given names, and performing a join with
author_datasets

authors_of_interest <-
    tibble(
        family = c("Teichmann", "Regev", "Haniffa"),
        given = c("Sarah A.", "Aviv", "Muzlifah")
    )
right_join(
    author_datasets,
    authors_of_interest,
    by = c("family", "given")
)
#> # A tibble: 395 × 36
#>    collection_id  family given consortium dataset_id dataset_version_id donor_id
#>    <chr>          <chr>  <chr> <chr>      <chr>      <chr>              <list>  
#>  1 34f12de7-c5e5… Teich… Sara… NA         f0973891-… 78aa364a-0f20-411… <chr>   
#>  2 34f12de7-c5e5… Teich… Sara… NA         ef9a2058-… 9ec16c9d-b4b3-445… <chr>   
#>  3 34f12de7-c5e5… Teich… Sara… NA         e7c5ba7e-… 2d3fc1d5-933e-47d… <chr>   
#>  4 34f12de7-c5e5… Teich… Sara… NA         dee75ca4-… 795232bf-08ca-48e… <chr>   
#>  5 34f12de7-c5e5… Teich… Sara… NA         dce10ba0-… 2f2a2929-0c53-4f3… <chr>   
#>  6 34f12de7-c5e5… Teich… Sara… NA         da22c90e-… f9dc9230-cd78-4cc… <chr>   
#>  7 34f12de7-c5e5… Teich… Sara… NA         d7d70622-… 18cc77ec-f88e-424… <chr>   
#>  8 34f12de7-c5e5… Teich… Sara… NA         d465e08b-… 3dc18f67-12e1-4a6… <chr>   
#>  9 34f12de7-c5e5… Teich… Sara… NA         c68e6ac8-… 97872cba-2dea-4d4… <chr>   
#> 10 34f12de7-c5e5… Teich… Sara… NA         b336b422-… 5def0614-e8e3-4bb… <chr>   
#> # ℹ 385 more rows
#> # ℹ 29 more variables: assay <list>, batch_condition <list>, cell_count <int>,
#> #   cell_type <list>, citation <chr>, default_embedding <chr>,
#> #   development_stage <list>, disease <list>, embeddings <list>,
#> #   explorer_url <chr>, feature_biotype <list>, feature_count <int>,
#> #   feature_reference <list>, is_primary_data <list>,
#> #   mean_genes_per_cell <dbl>, organism <list>, primary_cell_count <int>, …

Areas of interest

There are several interesting questions that suggest themselves, and
several areas where some additional work is required.

It might be interesting to identify authors working on similar
disease, or other areas of interest. The disease column in
the author_datasets table is a list.

author_datasets |>
    select(family, given, dataset_id, disease)
#> # A tibble: 50,135 × 4
#>    family          given       dataset_id                           disease   
#>    <chr>           <chr>       <chr>                                <list>    
#>  1 Escoubas        Caroline C. 5dec4249-8459-4df0-8998-37193135754c <list [1]>
#>  2 Dorman          Leah C.     5dec4249-8459-4df0-8998-37193135754c <list [1]>
#>  3 Nguyen          Phi T.      5dec4249-8459-4df0-8998-37193135754c <list [1]>
#>  4 Lagares-Linares Christian   5dec4249-8459-4df0-8998-37193135754c <list [1]>
#>  5 Nakajo          Haruna      5dec4249-8459-4df0-8998-37193135754c <list [1]>
#>  6 Anderson        Sarah R.    5dec4249-8459-4df0-8998-37193135754c <list [1]>
#>  7 Barron          Jerika J.   5dec4249-8459-4df0-8998-37193135754c <list [1]>
#>  8 Wade            Sarah D.    5dec4249-8459-4df0-8998-37193135754c <list [1]>
#>  9 Cuevas          Beatriz     5dec4249-8459-4df0-8998-37193135754c <list [1]>
#> 10 Vainchtein      Ilia D.     5dec4249-8459-4df0-8998-37193135754c <list [1]>
#> # ℹ 50,125 more rows

This is because a single dataset may involve more than one disease.
Furthermore, each entry in the list contains two elements, the
label and ontology_term_id of the disease.
There are two approaches to working with this data.

One approach to working with this data uses facilities in cellxgenedp as
outlined in an accompanying article. Discover possible diseases.

facets(db(), "disease")
#> # A tibble: 130 × 4
#>    facet   label                                        ontology_term_id     n
#>    <chr>   <chr>                                        <chr>            <int>
#>  1 disease normal                                       PATO:0000461      1256
#>  2 disease COVID-19                                     MONDO:0100096       66
#>  3 disease dementia                                     MONDO:0001627       50
#>  4 disease myocardial infarction                        MONDO:0005068       28
#>  5 disease diabetic kidney disease                      MONDO:0005016       26
#>  6 disease autosomal dominant polycystic kidney disease MONDO:0004691       24
#>  7 disease nonpapillary renal cell carcinoma            MONDO:0007763       19
#>  8 disease colorectal cancer                            MONDO:0005575       17
#>  9 disease Alzheimer disease                            MONDO:0004975       15
#> 10 disease small cell lung carcinoma                    MONDO:0008433       12
#> # ℹ 120 more rows

Focus on COVID-19, and use facets_filter()
to select relevant author-dataset combinations.

author_datasets |>
    filter(facets_filter(disease, "label", "COVID-19"))
#> # A tibble: 1,912 × 36
#>    collection_id  family given consortium dataset_id dataset_version_id donor_id
#>    <chr>          <chr>  <chr> <chr>      <chr>      <chr>              <list>  
#>  1 7d7cabfd-1d1f… van d… Moni… NA         01ad3cd7-… 02a1eee1-e290-47d… <chr>   
#>  2 7d7cabfd-1d1f… Vazqu… Sara… NA         01ad3cd7-… 02a1eee1-e290-47d… <chr>   
#>  3 7d7cabfd-1d1f… Harto… Geor… NA         01ad3cd7-… 02a1eee1-e290-47d… <chr>   
#>  4 7d7cabfd-1d1f… Basta… Paul  NA         01ad3cd7-… 02a1eee1-e290-47d… <chr>   
#>  5 7d7cabfd-1d1f… Grant  Tian… NA         01ad3cd7-… 02a1eee1-e290-47d… <chr>   
#>  6 7d7cabfd-1d1f… Bueno  Raym… NA         01ad3cd7-… 02a1eee1-e290-47d… <chr>   
#>  7 7d7cabfd-1d1f… Lee    Davi… NA         01ad3cd7-… 02a1eee1-e290-47d… <chr>   
#>  8 7d7cabfd-1d1f… Green… John… NA         01ad3cd7-… 02a1eee1-e290-47d… <chr>   
#>  9 7d7cabfd-1d1f… Sun    Yang  NA         01ad3cd7-… 02a1eee1-e290-47d… <chr>   
#> 10 7d7cabfd-1d1f… Perez  Rich… NA         01ad3cd7-… 02a1eee1-e290-47d… <chr>   
#> # ℹ 1,902 more rows
#> # ℹ 29 more variables: assay <list>, batch_condition <list>, cell_count <int>,
#> #   cell_type <list>, citation <chr>, default_embedding <chr>,
#> #   development_stage <list>, disease <list>, embeddings <list>,
#> #   explorer_url <chr>, feature_biotype <list>, feature_count <int>,
#> #   feature_reference <list>, is_primary_data <list>,
#> #   mean_genes_per_cell <dbl>, organism <list>, primary_cell_count <int>, …

Authors contributing to these datasets are

author_datasets |>
    filter(facets_filter(disease, "label", "COVID-19")) |>
    count(family, given, sort = TRUE)
#> # A tibble: 836 × 3
#>    family       given           n
#>    <chr>        <chr>       <int>
#>  1 Farber       Donna L.       29
#>  2 Guo          Xinzheng V.    28
#>  3 Saqi         Anjali         28
#>  4 Baldwin      Matthew R.     27
#>  5 Chait        Michael        27
#>  6 Connors      Thomas J.      27
#>  7 Davis-Porada Julia          27
#>  8 Dogra        Pranay         27
#>  9 Gray         Joshua I.      27
#> 10 Idzikowski   Emma           27
#> # ℹ 826 more rows

A second approach is to follow the practices in R for Data Science, the
disease column can be ‘unnested’ twice, the first time to
expand the author_datasets table for each disease, and the
second time to separate the two columns of each disease.

author_dataset_diseases <-
    author_datasets |>
    select(family, given, dataset_id, disease) |>
    tidyr::unnest_longer(disease) |>
    tidyr::unnest_wider(disease)
author_dataset_diseases
#> # A tibble: 64,820 × 5
#>    family          given       dataset_id                 label ontology_term_id
#>    <chr>           <chr>       <chr>                      <chr> <chr>           
#>  1 Escoubas        Caroline C. 5dec4249-8459-4df0-8998-3… norm… PATO:0000461    
#>  2 Dorman          Leah C.     5dec4249-8459-4df0-8998-3… norm… PATO:0000461    
#>  3 Nguyen          Phi T.      5dec4249-8459-4df0-8998-3… norm… PATO:0000461    
#>  4 Lagares-Linares Christian   5dec4249-8459-4df0-8998-3… norm… PATO:0000461    
#>  5 Nakajo          Haruna      5dec4249-8459-4df0-8998-3… norm… PATO:0000461    
#>  6 Anderson        Sarah R.    5dec4249-8459-4df0-8998-3… norm… PATO:0000461    
#>  7 Barron          Jerika J.   5dec4249-8459-4df0-8998-3… norm… PATO:0000461    
#>  8 Wade            Sarah D.    5dec4249-8459-4df0-8998-3… norm… PATO:0000461    
#>  9 Cuevas          Beatriz     5dec4249-8459-4df0-8998-3… norm… PATO:0000461    
#> 10 Vainchtein      Ilia D.     5dec4249-8459-4df0-8998-3… norm… PATO:0000461    
#> # ℹ 64,810 more rows
…
It might be interesting to know which authors have collaborated with
one another. This can be computed from the author_datasets
table, following approaches developed in the grantpubcite package to
identify collaborations between projects in the NIH-funded ITCR program.
See the graph visualization in the ITCR
collaboration section for inspiration.

Duplicate collection-author combinations

Here are the authors

authors <- authors()
authors
#> # A tibble: 6,052 × 4
#>    collection_id                        family          given       consortium
#>    <chr>                                <chr>           <chr>       <chr>     
#>  1 4828d33d-fb26-42e7-bf36-18293b0eec85 Escoubas        Caroline C. NA        
#>  2 4828d33d-fb26-42e7-bf36-18293b0eec85 Dorman          Leah C.     NA        
#>  3 4828d33d-fb26-42e7-bf36-18293b0eec85 Nguyen          Phi T.      NA        
#>  4 4828d33d-fb26-42e7-bf36-18293b0eec85 Lagares-Linares Christian   NA        
#>  5 4828d33d-fb26-42e7-bf36-18293b0eec85 Nakajo          Haruna      NA        
#>  6 4828d33d-fb26-42e7-bf36-18293b0eec85 Anderson        Sarah R.    NA        
#>  7 4828d33d-fb26-42e7-bf36-18293b0eec85 Barron          Jerika J.   NA        
#>  8 4828d33d-fb26-42e7-bf36-18293b0eec85 Wade            Sarah D.    NA        
#>  9 4828d33d-fb26-42e7-bf36-18293b0eec85 Cuevas          Beatriz     NA        
#> 10 4828d33d-fb26-42e7-bf36-18293b0eec85 Vainchtein      Ilia D.     NA        
#> # ℹ 6,042 more rows

There are 6052 collection-author combinations. We expect these to be
distinct (each row identifying a unique collection-author combination).
But this is not true

nrow(authors) == nrow(distinct(authors))
#> [1] FALSE

Duplicated data are

authors |> 
    count(collection_id, family, given, consortium, sort = TRUE) |>
    filter(n > 1)
#> # A tibble: 73 × 5
#>    collection_id                        family     given        consortium     n
#>    <chr>                                <chr>      <chr>        <chr>      <int>
#>  1 e5f58829-1a66-40b5-a624-9046778e74f5 Pisco      Angela Oliv… NA             4
#>  2 e5f58829-1a66-40b5-a624-9046778e74f5 Crasta     Sheela       NA             3
#>  3 e5f58829-1a66-40b5-a624-9046778e74f5 Swift      Michael      NA             3
#>  4 e5f58829-1a66-40b5-a624-9046778e74f5 Travaglini Kyle J.      NA             3
#>  5 e5f58829-1a66-40b5-a624-9046778e74f5 de Morree  Antoine      NA             3
#>  6 51544e44-293b-4c2b-8c26-560678423380 Betts      Michael R.   NA             2
#>  7 51544e44-293b-4c2b-8c26-560678423380 Faryabi    Robert B.    NA             2
#>  8 51544e44-293b-4c2b-8c26-560678423380 Fasolino   Maria        NA             2
#>  9 51544e44-293b-4c2b-8c26-560678423380 Feldman    Michael      NA             2
#> 10 51544e44-293b-4c2b-8c26-560678423380 Goldman    Naomi        NA             2
#> # ℹ 63 more rows
…
